{
  "project_info": {
    "project_number": "650401801251",
    "firebase_url": "https://leskan-app.firebaseio.com",
    "project_id": "leskan-app",
    "storage_bucket": "leskan-app.appspot.com"
  },
  "client": [
    {
      "client_info": {
        "mobilesdk_app_id": "1:650401801251:android:e7d53a00011ee36a",
        "android_client_info": {
          "package_name": "com.impactsolutions.leskan"
        }
      },
      "oauth_client": [
        {
          "client_id": "650401801251-f1kn0aicsjt2s33hp9ah69f8pcohuc2g.apps.googleusercontent.com",
          "client_type": 1,
          "android_info": {
            "package_name": "com.impactsolutions.leskan",
            "certificate_hash": "1ca0934f6655a6a87bb8991e8356b489952b0d49"
          }
        },
        {
          "client_id": "650401801251-lbr8kqgamur0kgcv87e9msepdvbvp1iv.apps.googleusercontent.com",
          "client_type": 3
        }
      ],
      "api_key": [
        {
          "current_key": "AIzaSyBQrPIcwm1F3JMOVKZQVUHik3mUHA3SBf4"
        }
      ],
      "services": {
        "analytics_service": {
          "status": 1
        },
        "appinvite_service": {
          "status": 2,
          "other_platform_oauth_client": [
            {
              "client_id": "650401801251-lbr8kqgamur0kgcv87e9msepdvbvp1iv.apps.googleusercontent.com",
              "client_type": 3
            }
          ]
        },
        "ads_service": {
          "status": 2
        }
      }
    }
  ],
  "configuration_version": "1"
}